// Jest Snapshot v1, https://goo.gl/fbAQLP

exports[`App renders correctly 1`] = `
<div>
  <div
    className="progressIcon"
  >
    Loading...
  </div>
</div>
`;

exports[`Card renders correctly 1`] = `
<div
  className="MuiPaper-root MuiCard-root makeStyles-root-1 MuiPaper-elevation1 MuiPaper-rounded"
>
  <div
    className="makeStyles-details-2"
  >
    <div
      className="MuiCardContent-root makeStyles-content-3"
    >
      <div
        className="name"
        onClick={[Function]}
      >
        <h5
          className="MuiTypography-root MuiTypography-h5"
        />
      </div>
      <div
        className="content hidden"
      >
        <img
          alt=""
        />
        <h6
          className="MuiTypography-root MuiTypography-subtitle1 MuiTypography-colorTextSecondary"
        />
        <div
          className="MuiChip-root MuiChip-colorPrimary"
          onKeyDown={[Function]}
          onKeyUp={[Function]}
        >
          <span
            className="MuiChip-label"
          >
            Popularity: undefined
          </span>
        </div>
        <div
          className="MuiChip-root MuiChip-colorPrimary"
          onKeyDown={[Function]}
          onKeyUp={[Function]}
        >
          <span
            className="MuiChip-label"
          >
            Reliability: undefined
          </span>
        </div>
        <div
          className="makeStyles-controls-5"
        >
          <audio
            controls={true}
          >
            <source
              type="audio/mpeg"
            />
          </audio>
        </div>
        <div
          className="chip"
          onClick={null}
        >
          1
        </div>
        <div
          className="chip"
          onClick={null}
        >
          2
        </div>
      </div>
    </div>
  </div>
</div>
`;
